E:\WORK\sefroyek\comment\src\main\java\com\comment\doa\siteService.java
E:\WORK\sefroyek\comment\src\main\java\com\comment\model\CommentRequest.java
E:\WORK\sefroyek\comment\src\main\java\com\comment\model\Teacher.java
E:\WORK\sefroyek\comment\src\main\java\com\comment\service\siteResource.java
E:\WORK\sefroyek\comment\src\main\java\com\comment\model\TeacherCourse.java
E:\WORK\sefroyek\comment\src\main\java\com\comment\model\ErrorCode.java
E:\WORK\sefroyek\comment\src\main\java\com\comment\doa\JDBCConnection.java
E:\WORK\sefroyek\comment\src\main\java\com\comment\exceptions\DataNotFoundException.java
E:\WORK\sefroyek\comment\src\main\java\com\comment\model\ResponseStatus.java
E:\WORK\sefroyek\comment\src\main\java\com\comment\exceptions\GenericExceptionMapper.java
E:\WORK\sefroyek\comment\src\main\java\com\comment\model\Student.java
E:\WORK\sefroyek\comment\src\main\java\com\comment\exceptions\GenericException.java
E:\WORK\sefroyek\comment\src\main\java\com\comment\model\Faculty.java
E:\WORK\sefroyek\comment\src\main\java\com\comment\model\Response.java
E:\WORK\sefroyek\comment\src\main\java\com\comment\model\CommentIsActiveRequest.java
E:\WORK\sefroyek\comment\src\main\java\com\comment\exceptions\DataNotFoundExceptionMapper.java
E:\WORK\sefroyek\comment\src\main\java\com\comment\model\Comment.java
E:\WORK\sefroyek\comment\src\main\java\com\comment\model\StudentStatus.java
E:\WORK\sefroyek\comment\src\main\java\com\comment\model\StudentCourse.java
